<?xml version="1.0" encoding="UTF-8" standalone="no"?>
<!-- Created with Inkscape (http://www.inkscape.org/) -->

<svg
   width="13.387071mm"
   height="17.76104mm"
   viewBox="0 0 13.387071 17.76104"
   version="1.1"
   id="svg6857"
   xml:space="preserve"
   inkscape:version="1.2.2 (b0a8486541, 2022-12-01)"
   sodipodi:docname="access-grant.svg"
   xmlns:inkscape="http://www.inkscape.org/namespaces/inkscape"
   xmlns:sodipodi="http://sodipodi.sourceforge.net/DTD/sodipodi-0.dtd"
   xmlns="http://www.w3.org/2000/svg"
   xmlns:svg="http://www.w3.org/2000/svg"><sodipodi:namedview
     id="namedview6859"
     pagecolor="#ffffff"
     bordercolor="#000000"
     borderopacity="0.25"
     inkscape:showpageshadow="2"
     inkscape:pageopacity="0.0"
     inkscape:pagecheckerboard="0"
     inkscape:deskcolor="#d1d1d1"
     inkscape:document-units="mm"
     showgrid="false"
     inkscape:zoom="13.345254"
     inkscape:cx="25.739487"
     inkscape:cy="43.536076"
     inkscape:window-width="1247"
     inkscape:window-height="1531"
     inkscape:window-x="20"
     inkscape:window-y="20"
     inkscape:window-maximized="0"
     inkscape:current-layer="layer1" /><defs
     id="defs6854" /><g
     inkscape:label="Calque 1"
     inkscape:groupmode="layer"
     id="layer1"
     transform="translate(-99.154863,-126.63297)"><g
       id="g1358-2-98"
       transform="matrix(0.03417163,0,0,0.03417163,99.287446,126.76555)"
       style="stroke:#fffbfb;stroke-width:7.7598;stroke-dasharray:none;stroke-opacity:1"><path
         d="M 224,136 V 0 H 24 C 10.7,0 0,10.7 0,24 v 464 c 0,13.3 10.7,24 24,24 h 336 c 13.3,0 24,-10.7 24,-24 V 160 H 248 c -13.2,0 -24,-10.8 -24,-24 z M 384,121.9 V 128 H 256 V 0 h 6.1 c 6.4,0 12.5,2.5 17,7 l 97.9,98 c 4.5,4.5 7,10.6 7,16.9 z"
         id="path1053-7-4"
         style="stroke:#fffbfb;stroke-width:7.7598;stroke-dasharray:none;stroke-opacity:1" /></g><path
       d="m 109.2509,138.44539 c 0.18517,0.18519 0.18517,0.486 0,0.67124 l -3.79316,3.79314 c -0.18519,0.18519 -0.486,0.18519 -0.67122,0 l -1.89658,-1.89658 c -0.18517,-0.18519 -0.18517,-0.48599 0,-0.67122 0.18519,-0.18519 0.486,-0.18519 0.67121,0 l 1.56171,1.56025 3.4583,-3.45683 c 0.18519,-0.18517 0.48602,-0.18517 0.67122,0 z"
       id="path7061"
       style="fill:#ffffff;fill-opacity:1;stroke-width:0.014817" /><path
       fill="currentColor"
       d="m 109.85988,135.75387 h -0.94021 c -0.12979,0 -0.23505,0.112 -0.23505,0.25001 v 1.00006 c 0,0.13804 0.1053,0.25 0.23505,0.25 h 0.94021 c 0.1298,0 0.23506,-0.11199 0.23506,-0.25 v -1.00006 c 0,-0.13805 -0.10531,-0.25001 -0.23506,-0.25001 z m -1.41032,-2.25011 c 0,-0.13806 -0.1053,-0.25002 -0.23504,-0.25002 h -0.94023 c -0.12978,0 -0.23504,0.112 -0.23504,0.25002 v 1.00005 c 0,0.13804 0.10531,0.25 0.23504,0.25 h 0.70311 l 0.53739,1.00037 c 0.0816,-0.14891 0.23153,-0.25033 0.40488,-0.25033 h 0.001 l -0.47216,-0.87887 v -0.37119 h 1.64537 v -0.50002 h -1.64537 z m 3.05569,-0.25002 h -0.94021 c -0.12979,0 -0.23505,0.112 -0.23505,0.25002 v 1.00005 c 0,0.13804 0.10531,0.25 0.23505,0.25 h 0.94021 c 0.1298,0 0.23505,-0.11199 0.23505,-0.25 v -1.00005 c 0,-0.13806 -0.1053,-0.25002 -0.23505,-0.25002 z"
       id="path1178-0"
       style="fill:#ffffff;stroke:#fffbfb;stroke-width:0.167405;stroke-dasharray:none;stroke-opacity:1" /><g
       id="g7137"
       transform="matrix(0.07303667,0,0,0.07753726,59.269293,127.37943)"
       style="fill:#ffffff;fill-opacity:1"><path
         d="m 565.31153,69.535587 c -3.78819,0 -6.86163,3.07344 -6.86163,6.86163 v 2.28721 h 82.33954 v -2.28721 c 0,-3.78819 -3.07344,-6.86163 -6.86162,-6.86163 z m -6.86163,13.723264 v 43.456979 c 0,3.78819 3.07344,6.86163 6.86163,6.86163 h 68.61629 c 3.78818,0 6.86162,-3.07344 6.86162,-6.86163 V 83.258851 Z m 61.68765,9.08574 h 3.39284 L 613.1528,124.03467 h -3.39257 z m 13.81009,0 h 3.39284 l -10.3776,31.690079 h -3.39256 z m -50.33844,0.0631 c 5.04616,0 9.14884,4.10268 9.14884,9.148839 0,5.04615 -4.10268,9.14884 -9.14884,9.14884 -5.04615,0 -9.14884,-4.10269 -9.14884,-9.14884 0,-5.046159 4.10269,-9.148839 9.14884,-9.148839 z m 17.13063,8.108809 h 4.21089 v 4.78271 h -4.21089 z m -23.99225,14.76328 h 1.17208 c 1.75829,0.72905 3.67394,1.14361 5.68954,1.14361 2.01561,0 3.94555,-0.41456 5.68955,-1.14361 h 1.17208 c 4.0598,0 7.50497,2.64448 8.70575,6.31831 0.45744,1.41521 -0.74329,2.83053 -2.22997,2.83053 H 570.2718 c -1.48669,0 -2.68741,-1.42962 -2.22997,-2.83053 1.20078,-3.67383 4.64595,-6.31831 8.70575,-6.31831 z m 23.99225,0.39452 h 4.21089 v 4.7827 h -4.21089 z"
         id="path2"
         style="fill:#ffffff;fill-opacity:1;stroke-width:0.142951" /><rect
         style="fill:#ffffff;fill-opacity:1;stroke:#ffffff;stroke-width:9;stroke-miterlimit:4;stroke-dasharray:none;stroke-opacity:1"
         id="rect4544"
         width="0"
         height="195.25424"
         x="633.49152"
         y="129.62712" /></g></g></svg>
